Posterior Simulation
…
The added variable .row will be used later to match posterior simulated values to the row in the prediction data set ds. We also compute the fitted values for these new observations using fitted_values().

fv <- fitted_values(m, data = ds)

That step isn’t required in order to do posterior simulation with gratia, but we’ll use the fitted values later to show the model estimated values and their uncertainty in contrast to the prediction interval.

We use posterior_samples() to generate new response data for each of the new x values in ds and use a join to add the prediction data to each draw

ps <- posterior_samples(m, n = 10000, data = ds, seed = 24,
  unconditional = TRUE) |>
  left_join(ds, by = join_by(.row == .row))
ps
#> # A tibble: 2,000,000 × 4
#>     .row .draw .response       x
#>    <int> <int>     <dbl>   <dbl>
#>  1     1     1  -1.31    0.00129
#>  2     2     1  -0.0146  0.00629
#>  3     3     1   0.0657  0.0113 
#>  4     4     1  -0.748   0.0163 
#>  5     5     1   0.896   0.0213 
#>  6     6     1   0.510   0.0263 
#>  7     7     1   0.893   0.0313 
#>  8     8     1   0.177   0.0363 
#>  9     9     1  -0.00106 0.0413 
#> 10    10     1   1.07    0.0463 
#> # ℹ 1,999,990 more rows
…
We apply this function to our set of posterior draws, grouping by .row to summarise separately the posterior distribution for each new value of x. reframe() is used to summarise the posterior using our quantile_fun() function. For ease of use, we pivot the resulting summary from long to wide format and add on the covariate values by joining on the .row variable

p_int <- ps |>
  group_by(.row) |>
  reframe(quantile_fun(.response)) |>
  pivot_wider(
    id_cols = .row, names_from = .q, values_from = .value,
    names_prefix = ".q"
  ) |>
  left_join(ds, by = join_by(.row == .row))
p_int
#> # A tibble: 200 × 5
#>     .row  .q2.5    .q50 .q97.5       x
#>    <int>  <dbl>   <dbl>  <dbl>   <dbl>
#>  1     1 -2.84  -0.842    1.25 0.00129
#>  2     2 -2.71  -0.645    1.40 0.00629
#>  3     3 -2.50  -0.433    1.62 0.0113 
#>  4     4 -2.24  -0.209    1.82 0.0163 
#>  5     5 -2.04  -0.0187   2.02 0.0213 
#>  6     6 -1.82   0.193    2.24 0.0263 
#>  7     7 -1.60   0.388    2.42 0.0313 
#>  8     8 -1.37   0.599    2.60 0.0363 
#>  9     9 -1.20   0.830    2.84 0.0413 
#> 10    10 -0.931  1.06     3.05 0.0463 
#> # ℹ 190 more rows
…
